<?xml version="1.0" encoding="UTF-8"?>
<testng-results ignored="1" total="2" passed="1" failed="0" skipped="0">
  <reporter-output>
  </reporter-output>
  <suite started-at="2022-03-10T17:17:11 IST" name="Selenium Web Suite" finished-at="2022-03-10T17:17:28 IST" duration-ms="16305">
    <groups>
    </groups>
    <test started-at="2022-03-10T17:17:11 IST" name="tests" finished-at="2022-03-10T17:17:28 IST" duration-ms="16305">
      <class name="web.tests.GoogleTest1">
        <test-method is-config="true" signature="beforeTest()[pri:0, instance:web.tests.GoogleTest1@ccd1bc3]" started-at="2022-03-10T17:17:12 IST" name="beforeTest" finished-at="2022-03-10T17:17:26 IST" duration-ms="14679" status="PASS">
          <reporter-output>
          </reporter-output>
        </test-method> <!-- beforeTest -->
        <test-method signature="Test2()[pri:0, instance:web.tests.GoogleTest1@ccd1bc3]" started-at="2022-03-10T17:17:27 IST" name="Test2" finished-at="2022-03-10T17:17:27 IST" duration-ms="9" status="PASS">
          <reporter-output>
          </reporter-output>
        </test-method> <!-- Test2 -->
        <test-method is-config="true" signature="afterTest()[pri:0, instance:web.tests.GoogleTest1@ccd1bc3]" started-at="2022-03-10T17:17:27 IST" name="afterTest" finished-at="2022-03-10T17:17:28 IST" duration-ms="980" status="PASS">
          <reporter-output>
          </reporter-output>
        </test-method> <!-- afterTest -->
      </class> <!-- web.tests.GoogleTest1 -->
    </test> <!-- tests -->
  </suite> <!-- Selenium Web Suite -->
</testng-results>
